[  
   {  
      "id":"2c92c0f84bde50ec014be2419a026d9a",
      "sku":"SKU-00000001",
      "name":"Qumulate",
      "description":"",
      "productRatePlans":[  
         {  
            "id":"2c92c0f94f87bd1c014f9372d4dc73f3",
            "status":"Active",
            "name":"Qumulate Monthly",
            "description":"",
            "effectiveStartDate":"2015-08-01",
            "effectiveEndDate":"2100-12-31",
            "productRatePlanCharges":[  
               {  
                  "id":"2c92c0f94f87bd1c014f9372d55e73f5",
                  "name":"Qumulate Monthly User Group",
                  "type":"Recurring",
                  "model":"FlatFee",
                  "uom":null,
                  "pricingSummary":[  
                     "USD175"
                  ],
                  "pricing":[  
                     {  
                        "currency":"USD",
                        "price":175,
                        "tiers":null,
                        "includedUnits":null,
                        "overagePrice":null,
                        "discountPercentage":null,
                        "discountAmount":null
                     }
                  ],
                  "defaultQuantity":null,
                  "applyDiscountTo":null,
                  "discountLevel":null,
                  "endDateCondition":"Subscription_End",
                  "upToPeriods":null,
                  "upToPeriodsType":null,
                  "billingDay":"DefaultFromCustomer",
                  "listPriceBase":"Per_Billing_Period",
                  "billingPeriod":"Month",
                  "billingPeriodAlignment":"AlignToCharge",
                  "specificBillingPeriod":null,
                  "smoothingModel":null,
                  "numberOfPeriods":null,
                  "overageCalculationOption":null,
                  "overageUnusedUnitsCreditOption":null,
                  "usageRecordRatingOption":null,
                  "priceChangeOption":null,
                  "priceIncreasePercentage":null,
                  "useTenantDefaultForPriceChange":null,
                  "taxable":true,
                  "taxCode":"01",
                  "taxMode":"TaxExclusive",
                  "ProfitCenter__c":"VMS10010080941",
                  "triggerEvent":"ContractEffective",
                  "description":""
               },
               {  
                  "id":"2c92c0f94f87bd1c014f9372d61673ff",
                  "name":"Qumulate Monthly Linac",
                  "type":"Recurring",
                  "model":"Volume",
                  "uom":"Each",
                  "pricingSummary":[  
                     "Up to 5 Each: USD175\/Each;  Up to 20 Each: USD87.5\/Each;  Up to 9999999 Each: USD50\/Each"
                  ],
                  "pricing":[  
                     {  
                        "currency":"USD",
                        "price":null,
                        "tiers":[  
                           {  
                              "tier":1,
                              "startingUnit":1,
                              "endingUnit":5,
                              "price":175,
                              "priceFormat":"PerUnit"
                           },
                           {  
                              "tier":2,
                              "startingUnit":6,
                              "endingUnit":20,
                              "price":87.5,
                              "priceFormat":"PerUnit"
                           },
                           {  
                              "tier":3,
                              "startingUnit":21,
                              "endingUnit":9999999,
                              "price":50,
                              "priceFormat":"PerUnit"
                           }
                        ],
                        "includedUnits":null,
                        "overagePrice":null,
                        "discountPercentage":null,
                        "discountAmount":null
                     }
                  ],
                  "defaultQuantity":null,
                  "applyDiscountTo":null,
                  "discountLevel":null,
                  "endDateCondition":"Subscription_End",
                  "upToPeriods":null,
                  "upToPeriodsType":null,
                  "billingDay":"DefaultFromCustomer",
                  "listPriceBase":"Per_Billing_Period",
                  "billingPeriod":"Month",
                  "billingPeriodAlignment":"AlignToCharge",
                  "specificBillingPeriod":null,
                  "smoothingModel":null,
                  "numberOfPeriods":null,
                  "overageCalculationOption":null,
                  "overageUnusedUnitsCreditOption":null,
                  "usageRecordRatingOption":null,
                  "priceChangeOption":null,
                  "priceIncreasePercentage":null,
                  "useTenantDefaultForPriceChange":null,
                  "taxable":true,
                  "taxCode":"01",
                  "taxMode":"TaxExclusive",
                  "ProfitCenter__c":"VMS10010080941",
                  "triggerEvent":"ContractEffective",
                  "description":""
               }
            ]
         }
      ]
   }
]